{
    "classDefinitions": [
        {
            "classname": "OnlineShopOrder",
            "fieldname": "paymentProvider"
        }
    ],
    "parentClass": "",
    "layoutDefinitions": {
        "fieldtype": "panel",
        "labelWidth": 100,
        "layout": null,
        "name": null,
        "type": null,
        "region": null,
        "title": null,
        "width": null,
        "height": null,
        "collapsible": false,
        "collapsed": null,
        "bodyStyle": null,
        "datatype": "layout",
        "permissions": null,
        "childs": [
            {
                "fieldtype": "panel",
                "labelWidth": 150,
                "layout": null,
                "name": "Layout",
                "type": null,
                "region": null,
                "title": "",
                "width": null,
                "height": null,
                "collapsible": false,
                "collapsed": false,
                "bodyStyle": "",
                "datatype": "layout",
                "permissions": null,
                "childs": [
                    {
                        "fieldtype": "input",
                        "width": 400,
                        "queryColumnType": "varchar",
                        "columnType": "varchar",
                        "columnLength": 255,
                        "phpdocType": "string",
                        "regex": "",
                        "unique": null,
                        "name": "auth_aliasCC",
                        "title": "aliasCC",
                        "tooltip": "",
                        "mandatory": false,
                        "noteditable": true,
                        "index": false,
                        "locked": false,
                        "style": "",
                        "permissions": null,
                        "datatype": "data",
                        "relationType": false,
                        "invisible": false,
                        "visibleGridView": false,
                        "visibleSearch": false
                    },
                    {
                        "fieldtype": "input",
                        "width": 400,
                        "queryColumnType": "varchar",
                        "columnType": "varchar",
                        "columnLength": 255,
                        "phpdocType": "string",
                        "regex": "",
                        "unique": false,
                        "name": "auth_maskedCC",
                        "title": "maskedCC",
                        "tooltip": "auth_maskedCC",
                        "mandatory": false,
                        "noteditable": true,
                        "index": false,
                        "locked": false,
                        "style": "",
                        "permissions": null,
                        "datatype": "data",
                        "relationType": false,
                        "invisible": false,
                        "visibleGridView": false,
                        "visibleSearch": false
                    },
                    {
                        "fieldtype": "input",
                        "width": 400,
                        "queryColumnType": "varchar",
                        "columnType": "varchar",
                        "columnLength": 255,
                        "phpdocType": "string",
                        "regex": "",
                        "unique": false,
                        "name": "auth_pmethod",
                        "title": "pmethod",
                        "tooltip": "auth_pmethod",
                        "mandatory": false,
                        "noteditable": true,
                        "index": false,
                        "locked": false,
                        "style": "",
                        "permissions": null,
                        "datatype": "data",
                        "relationType": false,
                        "invisible": false,
                        "visibleGridView": false,
                        "visibleSearch": false
                    },
                    {
                        "fieldtype": "input",
                        "width": 400,
                        "queryColumnType": "varchar",
                        "columnType": "varchar",
                        "columnLength": 255,
                        "phpdocType": "string",
                        "regex": "",
                        "unique": null,
                        "name": "auth_expm",
                        "title": "expm",
                        "tooltip": "",
                        "mandatory": false,
                        "noteditable": true,
                        "index": false,
                        "locked": false,
                        "style": "",
                        "permissions": null,
                        "datatype": "data",
                        "relationType": false,
                        "invisible": false,
                        "visibleGridView": false,
                        "visibleSearch": false
                    },
                    {
                        "fieldtype": "input",
                        "width": 400,
                        "queryColumnType": "varchar",
                        "columnType": "varchar",
                        "columnLength": 255,
                        "phpdocType": "string",
                        "regex": "",
                        "unique": null,
                        "name": "auth_expy",
                        "title": "expy",
                        "tooltip": "",
                        "mandatory": false,
                        "noteditable": true,
                        "index": false,
                        "locked": false,
                        "style": "",
                        "permissions": null,
                        "datatype": "data",
                        "relationType": false,
                        "invisible": false,
                        "visibleGridView": false,
                        "visibleSearch": false
                    },
                    {
                        "fieldtype": "input",
                        "width": 400,
                        "queryColumnType": "varchar",
                        "columnType": "varchar",
                        "columnLength": 255,
                        "phpdocType": "string",
                        "regex": "",
                        "unique": null,
                        "name": "auth_reqtype",
                        "title": "reqtype",
                        "tooltip": "",
                        "mandatory": false,
                        "noteditable": true,
                        "index": false,
                        "locked": false,
                        "style": "",
                        "permissions": null,
                        "datatype": "data",
                        "relationType": false,
                        "invisible": false,
                        "visibleGridView": false,
                        "visibleSearch": false
                    },
                    {
                        "fieldtype": "input",
                        "width": 400,
                        "queryColumnType": "varchar",
                        "columnType": "varchar",
                        "columnLength": 255,
                        "phpdocType": "string",
                        "regex": "",
                        "unique": null,
                        "name": "auth_uppTransactionId",
                        "title": "uppTransactionId",
                        "tooltip": "",
                        "mandatory": false,
                        "noteditable": true,
                        "index": false,
                        "locked": false,
                        "style": "",
                        "permissions": null,
                        "datatype": "data",
                        "relationType": false,
                        "invisible": false,
                        "visibleGridView": false,
                        "visibleSearch": false
                    },
                    {
                        "fieldtype": "input",
                        "width": 400,
                        "queryColumnType": "varchar",
                        "columnType": "varchar",
                        "columnLength": 255,
                        "phpdocType": "string",
                        "regex": "",
                        "unique": null,
                        "name": "auth_amount",
                        "title": "amount",
                        "tooltip": "",
                        "mandatory": false,
                        "noteditable": true,
                        "index": false,
                        "locked": false,
                        "style": "",
                        "permissions": null,
                        "datatype": "data",
                        "relationType": false,
                        "invisible": false,
                        "visibleGridView": false,
                        "visibleSearch": false
                    },
                    {
                        "fieldtype": "input",
                        "width": 400,
                        "queryColumnType": "varchar",
                        "columnType": "varchar",
                        "columnLength": 255,
                        "phpdocType": "string",
                        "regex": "",
                        "unique": null,
                        "name": "auth_currency",
                        "title": "currency",
                        "tooltip": "",
                        "mandatory": false,
                        "noteditable": true,
                        "index": false,
                        "locked": false,
                        "style": "",
                        "permissions": null,
                        "datatype": "data",
                        "relationType": false,
                        "invisible": false,
                        "visibleGridView": false,
                        "visibleSearch": false
                    },
                    {
                        "fieldtype": "input",
                        "width": 400,
                        "queryColumnType": "varchar",
                        "columnType": "varchar",
                        "columnLength": 255,
                        "phpdocType": "string",
                        "regex": "",
                        "unique": null,
                        "name": "auth_refno",
                        "title": "refno",
                        "tooltip": "",
                        "mandatory": false,
                        "noteditable": true,
                        "index": false,
                        "locked": false,
                        "style": "",
                        "permissions": null,
                        "datatype": "data",
                        "relationType": false,
                        "invisible": false,
                        "visibleGridView": false,
                        "visibleSearch": false
                    },
                    {
                        "fieldtype": "datetime",
                        "queryColumnType": "bigint(20)",
                        "columnType": "bigint(20)",
                        "phpdocType": "\\Carbon\\Carbon",
                        "defaultValue": null,
                        "useCurrentDate": false,
                        "name": "paymentFinished",
                        "title": "Date and Time",
                        "tooltip": "paymentFinished",
                        "mandatory": false,
                        "noteditable": true,
                        "index": false,
                        "locked": false,
                        "style": "",
                        "permissions": null,
                        "datatype": "data",
                        "relationType": false,
                        "invisible": false,
                        "visibleGridView": false,
                        "visibleSearch": false
                    },
                    {
                        "fieldtype": "href",
                        "width": "",
                        "assetUploadPath": "",
                        "relationType": true,
                        "queryColumnType": {
                            "id": "int(11)",
                            "type": "enum('document','asset','object')"
                        },
                        "phpdocType": "\\Pimcore\\Model\\Document\\Page | \\Pimcore\\Model\\Document\\Snippet | \\Pimcore\\Model\\Document | \\Pimcore\\Model\\Asset | \\Pimcore\\Model\\DataObject\\AbstractObject",
                        "objectsAllowed": true,
                        "assetsAllowed": false,
                        "assetTypes": [],
                        "documentsAllowed": false,
                        "documentTypes": [],
                        "lazyLoading": true,
                        "classes": [
                            {
                                "classes": "OnlineShopOrder"
                            }
                        ],
                        "pathFormatterClass": "",
                        "name": "sourceOrder",
                        "title": "Source Order",
                        "tooltip": "sourceOrder",
                        "mandatory": false,
                        "noteditable": false,
                        "index": false,
                        "locked": false,
                        "style": "",
                        "permissions": null,
                        "datatype": "data",
                        "columnType": null,
                        "invisible": false,
                        "visibleGridView": false,
                        "visibleSearch": false
                    }
                ],
                "locked": false
            }
        ],
        "locked": false
    }
}
